…
    ## # A tibble: 24 x 7
    ##    workerid  Mean  CILow CIHigh  YMin  YMax lowacc
    ##       <int> <dbl>  <dbl>  <dbl> <dbl> <dbl> <chr> 
    ##  1        0 0.519 0.111  0.111  0.407 0.630 1     
    ##  2        1 0.746 0.104  0.0896 0.642 0.836 1     
    ##  3        3 0.506 0.102  0.114  0.405 0.620 1     
    ##  4        6 0.573 0.107  0.12   0.467 0.693 1     
    ##  5        7 0.593 0.0988 0.0988 0.494 0.691 1     
    ##  6       12 0.457 0.0988 0.111  0.358 0.568 1     
    ##  7       13 0.481 0.101  0.101  0.380 0.582 1     
    ##  8       16 0.556 0.127  0.111  0.429 0.667 1     
    ##  9       17 0.506 0.111  0.0988 0.395 0.605 1     
    ## 10       27 0.488 0.112  0.112  0.375 0.6   1     
    ## # … with 14 more rows
…
# Is there overlap?

    ## # A tibble: 60 x 3
    ## # Groups:   label [48]
    ##    label                       condition    count
    ##    <fct>                       <chr>        <int>
    ##  1 chair_metal_purple          material yes     5
    ##  2 table_metal_blue            material yes     5
    ##  3 table_metal_green           material yes     5
    ##  4 table_metal_silver_original material yes     5
    ##  5 boot_leather_green          material yes     3
    ##  6 chair_metal_green           material yes     3
    ##  7 plate_paper_blue            material yes     3
    ##  8 spoon_wood_green            material yes     3
    ##  9 table_wood_green            material yes     3
    ## 10 bag_plastic_blue            material no      2
    ## # … with 50 more rows

    ## # A tibble: 60 x 3
    ## # Groups:   label [42]
    ##    label                       condition    count
    ##    <fct>                       <chr>        <int>
    ##  1 table_wood_brown_original   material yes     5
    ##  2 plate_plastic_blue_original color yes        4
    ##  3 chair_plastic_blue_original color yes        3
    ##  4 cup_plastic_blue            material yes     3
    ##  5 cup_plastic_green           color no         3
    ##  6 cup_plastic_green           color yes        3
    ##  7 jacket_denim_purple         color yes        3
    ##  8 pitcher_metal_blue          color yes        3
    ##  9 table_metal_blue            color yes        3
    ## 10 table_wood_brown_original   color yes        3
    ## # … with 50 more rows
