…
    ## # A tibble: 29 x 7
    ##    workerid  Mean  CILow CIHigh  YMin  YMax lowacc
    ##       <int> <dbl>  <dbl>  <dbl> <dbl> <dbl> <chr> 
    ##  1        2 0.630 0.0988 0.0988 0.531 0.728 1     
    ##  2        4 0.543 0.111  0.0988 0.432 0.642 1     
    ##  3        5 0.617 0.111  0.0988 0.506 0.716 1     
    ##  4       11 0.519 0.111  0.111  0.407 0.630 1     
    ##  5       12 0.444 0.111  0.111  0.333 0.556 1     
    ##  6       13 0.667 0.0988 0.0988 0.568 0.765 1     
    ##  7       14 0.519 0.111  0.111  0.407 0.630 1     
    ##  8       31 0.494 0.111  0.111  0.383 0.605 1     
    ##  9       38 0.568 0.111  0.0988 0.457 0.667 1     
    ## 10       39 0.395 0.0988 0.0988 0.296 0.494 1     
    ## # … with 19 more rows
…
# Is there overlap?

    ## # A tibble: 49 x 3
    ## # Groups:   label [36]
    ##    label                 feature     count
    ##    <fct>                 <fct>       <int>
    ##  1 bag_paper_green       ['paper']       1
    ##  2 bag_plastic_blue      ['purple']      1
    ##  3 bag_plastic_green     ['rubber']      1
    ##  4 boot_leather_brown    ['rubber']      3
    ##  5 boot_leather_green    ['leather']     3
    ##  6 boot_rubber_brown     ['rubber']      1
    ##  7 boot_rubber_original  ['green']       2
    ##  8 bottle_glass_blue     ['plastic']     2
    ##  9 bottle_glass_original ['plastic']     3
    ## 10 bottle_plastic_blue   ['glass']       4
    ## # … with 39 more rows

    ## # A tibble: 54 x 3
    ## # Groups:   label [40]
    ##    label                 feature       count
    ##    <fct>                 <fct>         <int>
    ##  1 bag_paper_blue        ['glass']         1
    ##  2 bag_plastic_blue      ['plastic']       1
    ##  3 boot_leather_green    ['green']         3
    ##  4 boot_leather_green    ['pink']          1
    ##  5 boot_rubber_brown     ['silver']        1
    ##  6 boot_rubber_original  ['red']           1
    ##  7 bottle_glass_green    ['glass']         1
    ##  8 bottle_glass_original ['brown']         1
    ##  9 bottle_plastic_green  ['cardboard']     1
    ## 10 bowl_metal_blue       ['wood']          1
    ## # … with 44 more rows
