Perception in Context Experiment
…
Grouping

Proportion of correct answer(acceptance&rejections) and RT of all answers

## `summarise()` regrouping output by 'contextID' (override with `.groups` argument)

## `summarise()` regrouping output by 'contextID', 'adjQuestion' (override with `.groups` argument)

## # A tibble: 125 x 6
## # Groups:   contextID [31]
##    contextID    adjQuestion MeanProp featureQuestion MeanRT targetsFeature
##    <fct>        <fct>          <dbl> <fct>            <dbl>          <dbl>
##  1 blg_blb_brb  green            1   color            1630.              1
##  2 jdp_jlp_jlbo purple           1   color            1815               1
##  3 bgg_bpg_bpco green            1   color            1865               1
##  4 swg_swb_spb  green            1   color            1868               1
##  5 ppb_ppbo_ppg blue             1   color            1918.              1
##  6 tmso_tmg_twg silver           0.5 color            1952               1
##  7 cpg_cmg_cmb  green            1   color            1978               1
##  8 tmso_tmb_twb blue             1   color            1982.              0
##  9 tmb_tmg_twg  blue             1   color            2016.              1
## 10 cmp_cmg_cwg  purple           1   color            2036               1
## #  with 115 more rows
